{
  "log" : {
    "version" : "1.2",
    "creator" : {
      "name" : "BrowserMob Proxy",
      "version" : "2.1.5",
      "comment" : ""
    },
    "pages" : [ {
      "id" : "Page 0",
      "startedDateTime" : "2018-12-03T08:39:03.724Z",
      "title" : "Page 0",
      "pageTimings" : {
        "onLoad" : 1517,
        "comment" : ""
      },
      "comment" : ""
    } ],
    "entries" : [ {
      "pageref" : "Page 0",
      "startedDateTime" : "2018-12-03T08:39:04.678Z",
      "request" : {
        "method" : "GET",
        "url" : "https://reqres.in/api/users?page=2",
        "httpVersion" : "HTTP/1.1",
        "cookies" : [ ],
        "headers" : [ {
          "name" : "User-Agent",
          "value" : "Katalon Studio"
        }, {
          "name" : "Host",
          "value" : "reqres.in"
        }, {
          "name" : "Accept",
          "value" : "text/html, image/gif, image/jpeg, *; q=.2, */*; q=.2"
        }, {
          "name" : "Connection",
          "value" : "keep-alive"
        } ],
        "queryString" : [ {
          "name" : "page",
          "value" : "2"
        } ],
        "headersSize" : 167,
        "bodySize" : 0,
        "comment" : ""
      },
      "response" : {
        "status" : 200,
        "statusText" : "OK",
        "httpVersion" : "HTTP/1.1",
        "cookies" : [ {
          "name" : "__cfduid",
          "value" : "d1066b2e2dad2c7268f77bb06b6cbefe71543826342",
          "path" : "/",
          "domain" : ".reqres.in",
          "expires" : "2019-12-03T08:39:02.000Z",
          "httpOnly" : true,
          "secure" : false,
          "comment" : ""
        } ],
        "headers" : [ {
          "name" : "Date",
          "value" : "Mon, 03 Dec 2018 08:39:02 GMT"
        }, {
          "name" : "Content-Type",
          "value" : "application/json; charset=utf-8"
        }, {
          "name" : "Content-Length",
          "value" : "443"
        }, {
          "name" : "Connection",
          "value" : "keep-alive"
        }, {
          "name" : "Set-Cookie",
          "value" : "__cfduid=d1066b2e2dad2c7268f77bb06b6cbefe71543826342; expires=Tue, 03-Dec-19 08:39:02 GMT; path=/; domain=.reqres.in; HttpOnly"
        }, {
          "name" : "X-Powered-By",
          "value" : "Express"
        }, {
          "name" : "Access-Control-Allow-Origin",
          "value" : "*"
        }, {
          "name" : "ETag",
          "value" : "W/\"1bb-wM9a6JWbwt3JpLNfwoQwxnqaC3Y\""
        }, {
          "name" : "Expect-CT",
          "value" : "max-age=604800, report-uri=\"https://report-uri.cloudflare.com/cdn-cgi/beacon/expect-ct\""
        }, {
          "name" : "Server",
          "value" : "cloudflare"
        }, {
          "name" : "CF-RAY",
          "value" : "4834b8701a3ac379-SIN"
        } ],
        "content" : {
          "size" : 443,
          "mimeType" : "application/json; charset=utf-8",
          "text" : "{\"page\":2,\"per_page\":3,\"total\":12,\"total_pages\":4,\"data\":[{\"id\":4,\"first_name\":\"Eve\",\"last_name\":\"Holt\",\"avatar\":\"https://s3.amazonaws.com/uifaces/faces/twitter/marcoramires/128.jpg\"},{\"id\":5,\"first_name\":\"Charles\",\"last_name\":\"Morris\",\"avatar\":\"https://s3.amazonaws.com/uifaces/faces/twitter/stephenmoon/128.jpg\"},{\"id\":6,\"first_name\":\"Tracey\",\"last_name\":\"Ramos\",\"avatar\":\"https://s3.amazonaws.com/uifaces/faces/twitter/bigmancho/128.jpg\"}]}",
          "comment" : ""
        },
        "redirectURL" : "",
        "headersSize" : 538,
        "bodySize" : 443,
        "comment" : ""
      },
      "cache" : { },
      "timings" : {
        "comment" : "",
        "ssl" : 645,
        "connect" : 719,
        "send" : 4,
        "dns" : 4,
        "wait" : 429,
        "blocked" : 0,
        "receive" : 106
      },
      "serverIPAddress" : "104.27.135.11",
      "comment" : "",
      "_katalonRequestInformation" : {
        "name" : "0",
        "testObjectId" : "Object Repository/API-Chaining/ListUser",
        "harId" : "7343d1ec-114c-4fe7-b4c3-f3a23ee0edc2"
      },
      "time" : 1264
    } ],
    "comment" : ""
  }
}